test_run_dir/solutions.VendingMachineTester827450795/VendingMachine-verilator.vcd
$version Generated by VerilatedVcd $end
$date Tue Dec  6 16:41:02 2016
 $end
$timescale   1ns $end

 $scope module TOP $end
  $var wire  1 $ clock $end
  $var wire  1 ' io_dime $end
  $var wire  1 & io_nickel $end
  $var wire  1 ( io_valid $end
  $var wire  1 % reset $end
  $scope module VendingMachine $end
   $var wire  1 $ clock $end
   $var wire  1 ' io_dime $end
   $var wire  1 & io_nickel $end
   $var wire  1 ( io_valid $end
   $var wire  1 % reset $end
   $var wire  3 # state [2:0] $end
  $upscope $end
 $upscope $end
$enddefinitions $end


#0
b000 #
0$
1%
0&
0'
0(
#1
1$
#2
0$
#3
1$
#4
0$
#5
1$
#6
0$
#7
1$
#8
0$
#9
1$
#10
0$
0%
#11
1$
#12
0$
1&
#13
b001 #
1$
#14
0$
#15
b010 #
1$
#16
0$
0&
1'
#17
b100 #
1$
1(
#18
0$
#19
b000 #
1$
0(
#20
0$
#21
b010 #
1$
#22
0$
#23
b100 #
1$
1(
#24
0$
0'
#25
b000 #
1$
0(
#26
0$
#27
1$
#28
0$
1'
#29
b010 #
1$
#30
0$
#31
b100 #
1$
1(
#32
0$
#33
b000 #
1$
0(
#34
0$
#35
b010 #
1$
#36
0$
1&
0'
#37
b011 #
1$
#38
0$
0&
1'
#39
b100 #
1$
1(
#40
0$
#41
b000 #
1$
0(
#42
0$
1&
0'
#43
b001 #
1$
#44
0$
0&
#45
1$
#46
0$
1'
#47
b011 #
1$
#48
0$
#49
b100 #
1$
1(
